%YAML 1.1
%TAG !u! tag:unity3d.com,2011:
--- !u!1045 &1
EditorBuildSettings:
  m_ObjectHideFlags: 0
  serializedVersion: 2
  m_Scenes:
  - enabled: 1
    path: Assets/Scenes/SampleScene.unity
    guid: 8c9cfa26abfee488c85f1582747f6a02
  - enabled: 1
    path: Assets/Scenes/Menu.unity
    guid: e9f3393f40d747a4da0b7cae7977506c
  - enabled: 1
    path: Assets/Scenes/Game.unity
    guid: d9dd44dde7733d947ab55e1758da6e0b
  m_configObjects: {}
